Monte Carlo Casino
…
Games<-foreach(game=1:Simulations,.combine=rbind.data.frame,.packages="tidyverse")%dopar%{
  one.game(deck,shuffles[[game]],game)
}
stopCluster(cl)
Games

## # A tibble: 4,000 x 5
##         Player  Pair Three_of_a_kind Four_of_a_kind  Game
##         <fctr> <int>           <int>          <int> <int>
##  1     Alibaba     2               2              0     1
##  2       Baidu     4               0              0     1
##  3 Chinamobile     4               0              0     1
##  4        Didi     3               1              0     1
##  5     Alibaba     2               0              1     2
##  6       Baidu     6               0              0     2
##  7 Chinamobile     3               0              0     2
##  8        Didi     3               0              0     2
##  9     Alibaba     3               0              0     3
## 10       Baidu     3               0              0     3
## # ... with 3,990 more rows
…
cl<-makeCluster(4)
registerDoParallel(cl)
set.seed(1)
Games.suit<-foreach(game=1:Simulations,.combine=rbind.data.frame,.packages="tidyverse")%dopar%{
  one.game(deck,shuffles[[game]],game)
}

stopCluster(cl)

Games.suit

## # A tibble: 4,000 x 5
##         Player Flush Flushx2 Flushes  Game
##         <fctr> <int>   <int>   <dbl> <int>
##  1     Alibaba     0       0       0     1
##  2       Baidu     1       0       1     1
##  3 Chinamobile     2       0       2     1
##  4        Didi     1       0       1     1
##  5     Alibaba     0       0       0     2
##  6       Baidu     1       0       1     2
##  7 Chinamobile     1       0       1     2
##  8        Didi     0       0       0     2
##  9     Alibaba     0       0       0     3
## 10       Baidu     0       0       0     3
## # ... with 3,990 more rows
…
